^C:\PROJECTS\CODEPROJECTS\HOMEWORK_17\HOMEWORK_17.CPP
C:\PROJECTS\CODEPROJECTS\HOMEWORK_17\X64\DEBUG\VC143.PDB
C:\PROJECTS\CODEPROJECTS\HOMEWORK_17\X64\DEBUG\VC143.IDB
C:\PROJECTS\CODEPROJECTS\HOMEWORK_17\X64\DEBUG\HOMEWORK_17.OBJ
